{
    "/js/core/app.js": "/js/core/app.js",
    "/js/core/app-menu.js": "/js/core/app-menu.js",
    "/css/plugins/animate/animate.css": "/css/plugins/animate/animate.css",
    "/css/plugins/calendars/fullcalendar.css": "/css/plugins/calendars/fullcalendar.css",
    "/css/plugins/extensions/context-menu.css": "/css/plugins/extensions/context-menu.css",
    "/css/plugins/extensions/drag-and-drop.css": "/css/plugins/extensions/drag-and-drop.css",
    "/css/plugins/extensions/media-plyr.css": "/css/plugins/extensions/media-plyr.css",
    "/css/plugins/extensions/noui-slider.css": "/css/plugins/extensions/noui-slider.css",
    "/css/plugins/extensions/swiper.css": "/css/plugins/extensions/swiper.css",
    "/css/plugins/extensions/toastr.css": "/css/plugins/extensions/toastr.css",
    "/css/plugins/file-uploaders/dropzone.css": "/css/plugins/file-uploaders/dropzone.css",
    "/css/plugins/forms/extended/typeahed.css": "/css/plugins/forms/extended/typeahed.css",
    "/css/plugins/forms/form-inputs-groups.css": "/css/plugins/forms/form-inputs-groups.css",
    "/css/plugins/forms/validation/form-validation.css": "/css/plugins/forms/validation/form-validation.css",
    "/css/plugins/forms/wizard.css": "/css/plugins/forms/wizard.css",
    "/css/plugins/loaders/animations/ball-beat.css": "/css/plugins/loaders/animations/ball-beat.css",
    "/css/plugins/loaders/animations/ball-clip-rotate-multiple.css": "/css/plugins/loaders/animations/ball-clip-rotate-multiple.css",
    "/css/plugins/loaders/animations/ball-clip-rotate-pulse.css": "/css/plugins/loaders/animations/ball-clip-rotate-pulse.css",
    "/css/plugins/loaders/animations/ball-clip-rotate.css": "/css/plugins/loaders/animations/ball-clip-rotate.css",
    "/css/plugins/loaders/animations/ball-grid-beat.css": "/css/plugins/loaders/animations/ball-grid-beat.css",
    "/css/plugins/loaders/animations/ball-grid-pulse.css": "/css/plugins/loaders/animations/ball-grid-pulse.css",
    "/css/plugins/loaders/animations/ball-pulse-rise.css": "/css/plugins/loaders/animations/ball-pulse-rise.css",
    "/css/plugins/loaders/animations/ball-pulse-round.css": "/css/plugins/loaders/animations/ball-pulse-round.css",
    "/css/plugins/loaders/animations/ball-pulse-sync.css": "/css/plugins/loaders/animations/ball-pulse-sync.css",
    "/css/plugins/loaders/animations/ball-pulse.css": "/css/plugins/loaders/animations/ball-pulse.css",
    "/css/plugins/loaders/animations/ball-rotate.css": "/css/plugins/loaders/animations/ball-rotate.css",
    "/css/plugins/loaders/animations/ball-scale-multiple.css": "/css/plugins/loaders/animations/ball-scale-multiple.css",
    "/css/plugins/loaders/animations/ball-scale-random.css": "/css/plugins/loaders/animations/ball-scale-random.css",
    "/css/plugins/loaders/animations/ball-scale-ripple-multiple.css": "/css/plugins/loaders/animations/ball-scale-ripple-multiple.css",
    "/css/plugins/loaders/animations/ball-scale-ripple.css": "/css/plugins/loaders/animations/ball-scale-ripple.css",
    "/css/plugins/loaders/animations/ball-scale.css": "/css/plugins/loaders/animations/ball-scale.css",
    "/css/plugins/loaders/animations/ball-spin-fade-loader.css": "/css/plugins/loaders/animations/ball-spin-fade-loader.css",
    "/css/plugins/loaders/animations/ball-spin-loader.css": "/css/plugins/loaders/animations/ball-spin-loader.css",
    "/css/plugins/loaders/animations/ball-triangle-trace.css": "/css/plugins/loaders/animations/ball-triangle-trace.css",
    "/css/plugins/loaders/animations/ball-zig-zag-deflect.css": "/css/plugins/loaders/animations/ball-zig-zag-deflect.css",
    "/css/plugins/loaders/animations/ball-zig-zag.css": "/css/plugins/loaders/animations/ball-zig-zag.css",
    "/css/plugins/loaders/animations/cube-transition.css": "/css/plugins/loaders/animations/cube-transition.css",
    "/css/plugins/loaders/animations/line-scale-pulse-out-rapid.css": "/css/plugins/loaders/animations/line-scale-pulse-out-rapid.css",
    "/css/plugins/loaders/animations/line-scale-pulse-out.css": "/css/plugins/loaders/animations/line-scale-pulse-out.css",
    "/css/plugins/loaders/animations/line-scale-random.css": "/css/plugins/loaders/animations/line-scale-random.css",
    "/css/plugins/loaders/animations/line-scale.css": "/css/plugins/loaders/animations/line-scale.css",
    "/css/plugins/loaders/animations/line-spin-fade-loader.css": "/css/plugins/loaders/animations/line-spin-fade-loader.css",
    "/css/plugins/loaders/animations/pacman.css": "/css/plugins/loaders/animations/pacman.css",
    "/css/plugins/loaders/animations/semi-circle-spin.css": "/css/plugins/loaders/animations/semi-circle-spin.css",
    "/css/plugins/loaders/animations/square-spin.css": "/css/plugins/loaders/animations/square-spin.css",
    "/css/plugins/loaders/animations/triangle-skew-spin.css": "/css/plugins/loaders/animations/triangle-skew-spin.css",
    "/css/plugins/loaders/loaders.css": "/css/plugins/loaders/loaders.css",
    "/css/plugins/pickers/bootstrap-datetimepicker-build.css": "/css/plugins/pickers/bootstrap-datetimepicker-build.css",
    "/css/plugins/tour/tour.css": "/css/plugins/tour/tour.css",
    "/css/plugins/ui/coming-soon.css": "/css/plugins/ui/coming-soon.css",
    "/css/themes/dark-layout.css": "/css/themes/dark-layout.css",
    "/css/themes/semi-dark-layout.css": "/css/themes/semi-dark-layout.css",
    "/css/pages/aggrid.css": "/css/pages/aggrid.css",
    "/css/pages/app-chat.css": "/css/pages/app-chat.css",
    "/css/pages/app-ecommerce-details.css": "/css/pages/app-ecommerce-details.css",
    "/css/pages/app-ecommerce-shop.css": "/css/pages/app-ecommerce-shop.css",
    "/css/pages/app-email.css": "/css/pages/app-email.css",
    "/css/pages/app-todo.css": "/css/pages/app-todo.css",
    "/css/pages/app-user.css": "/css/pages/app-user.css",
    "/css/pages/authentication.css": "/css/pages/authentication.css",
    "/css/pages/card-analytics.css": "/css/pages/card-analytics.css",
    "/css/pages/colors.css": "/css/pages/colors.css",
    "/css/pages/coming-soon.css": "/css/pages/coming-soon.css",
    "/css/pages/dashboard-analytics.css": "/css/pages/dashboard-analytics.css",
    "/css/pages/dashboard-ecommerce.css": "/css/pages/dashboard-ecommerce.css",
    "/css/pages/data-list-view.css": "/css/pages/data-list-view.css",
    "/css/pages/error.css": "/css/pages/error.css",
    "/css/pages/faq.css": "/css/pages/faq.css",
    "/css/pages/invoice.css": "/css/pages/invoice.css",
    "/css/pages/knowledge-base.css": "/css/pages/knowledge-base.css",
    "/css/pages/register.css": "/css/pages/register.css",
    "/css/pages/search.css": "/css/pages/search.css",
    "/css/pages/timeline.css": "/css/pages/timeline.css",
    "/css/pages/users.css": "/css/pages/users.css",
    "/css/core/colors/palette-gradient.css": "/css/core/colors/palette-gradient.css",
    "/css/core/colors/palette-noui.css": "/css/core/colors/palette-noui.css",
    "/css/core/colors/palette-variables.css": "/css/core/colors/palette-variables.css",
    "/css/core/menu/menu-types/horizontal-menu.css": "/css/core/menu/menu-types/horizontal-menu.css",
    "/css/core/menu/menu-types/vertical-menu.css": "/css/core/menu/menu-types/vertical-menu.css",
    "/css/core/menu/menu-types/vertical-overlay-menu.css": "/css/core/menu/menu-types/vertical-overlay-menu.css",
    "/css/core/mixins/alert.css": "/css/core/mixins/alert.css",
    "/css/core/mixins/hex2rgb.css": "/css/core/mixins/hex2rgb.css",
    "/css/core/mixins/main-menu-mixin.css": "/css/core/mixins/main-menu-mixin.css",
    "/css/core/mixins/transitions.css": "/css/core/mixins/transitions.css",
    "/css/bootstrap.css": "/css/bootstrap.css",
    "/css/bootstrap-extended.css": "/css/bootstrap-extended.css",
    "/css/colors.css": "/css/colors.css",
    "/css/components.css": "/css/components.css",
    "/css/custom-rtl.css": "/css/custom-rtl.css",
    "/css/custom-laravel.css": "/css/custom-laravel.css",
    "/js/scripts/ag-grid/ag-grid.js": "/js/scripts/ag-grid/ag-grid.js",
    "/js/scripts/cards/card-analytics.js": "/js/scripts/cards/card-analytics.js",
    "/js/scripts/cards/card-statistics.js": "/js/scripts/cards/card-statistics.js",
    "/js/scripts/charts/chart-apex.js": "/js/scripts/charts/chart-apex.js",
    "/js/scripts/charts/chart-chartjs.js": "/js/scripts/charts/chart-chartjs.js",
    "/js/scripts/charts/chart-echart.js": "/js/scripts/charts/chart-echart.js",
    "/js/scripts/charts/gmaps/maps.js": "/js/scripts/charts/gmaps/maps.js",
    "/js/scripts/components.js": "/js/scripts/components.js",
    "/js/scripts/customizer.js": "/js/scripts/customizer.js",
    "/js/scripts/datatables/datatable.js": "/js/scripts/datatables/datatable.js",
    "/js/scripts/datatables/user-datatable.js": "/js/scripts/datatables/user-datatable.js",
    "/js/scripts/documentation.js": "/js/scripts/documentation.js",
    "/js/scripts/editors/editor-quill.js": "/js/scripts/editors/editor-quill.js",
    "/js/scripts/extensions/const-plyr.js": "/js/scripts/extensions/const-plyr.js",
    "/js/scripts/extensions/context-menu.js": "/js/scripts/extensions/context-menu.js",
    "/js/scripts/extensions/copy-to-clipboard.js": "/js/scripts/extensions/copy-to-clipboard.js",
    "/js/scripts/extensions/drag-drop.js": "/js/scripts/extensions/drag-drop.js",
    "/js/scripts/extensions/dropzone.js": "/js/scripts/extensions/dropzone.js",
    "/js/scripts/extensions/fullcalendar.js": "/js/scripts/extensions/fullcalendar.js",
    "/js/scripts/extensions/i18n.js": "/js/scripts/extensions/i18n.js",
    "/js/scripts/extensions/media-plyr.js": "/js/scripts/extensions/media-plyr.js",
    "/js/scripts/extensions/noui-slider.js": "/js/scripts/extensions/noui-slider.js",
    "/js/scripts/extensions/sweet-alerts.js": "/js/scripts/extensions/sweet-alerts.js",
    "/js/scripts/extensions/swiper.js": "/js/scripts/extensions/swiper.js",
    "/js/scripts/extensions/toastr.js": "/js/scripts/extensions/toastr.js",
    "/js/scripts/extensions/tour.js": "/js/scripts/extensions/tour.js",
    "/js/scripts/extensions/unslider.js": "/js/scripts/extensions/unslider.js",
    "/js/scripts/footer.js": "/js/scripts/footer.js",
    "/js/scripts/forms/basic-inputs.js": "/js/scripts/forms/basic-inputs.js",
    "/js/scripts/forms/form-maxlength.js": "/js/scripts/forms/form-maxlength.js",
    "/js/scripts/forms/form-tooltip-valid.js": "/js/scripts/forms/form-tooltip-valid.js",
    "/js/scripts/forms/number-input.js": "/js/scripts/forms/number-input.js",
    "/js/scripts/forms/select/form-select2.js": "/js/scripts/forms/select/form-select2.js",
    "/js/scripts/forms/validation/form-validation.js": "/js/scripts/forms/validation/form-validation.js",
    "/js/scripts/forms/wizard-steps.js": "/js/scripts/forms/wizard-steps.js",
    "/js/scripts/modal/components-modal.js": "/js/scripts/modal/components-modal.js",
    "/js/scripts/navs/navs.js": "/js/scripts/navs/navs.js",
    "/js/scripts/pages/3-columns-left-sidebar.js": "/js/scripts/pages/3-columns-left-sidebar.js",
    "/js/scripts/pages/account-setting.js": "/js/scripts/pages/account-setting.js",
    "/js/scripts/pages/app-chat.js": "/js/scripts/pages/app-chat.js",
    "/js/scripts/pages/app-ecommerce-details.js": "/js/scripts/pages/app-ecommerce-details.js",
    "/js/scripts/pages/app-ecommerce-shop.js": "/js/scripts/pages/app-ecommerce-shop.js",
    "/js/scripts/pages/app-email.js": "/js/scripts/pages/app-email.js",
    "/js/scripts/pages/app-todo.js": "/js/scripts/pages/app-todo.js",
    "/js/scripts/pages/app-user.js": "/js/scripts/pages/app-user.js",
    "/js/scripts/pages/bootstrap-toast.js": "/js/scripts/pages/bootstrap-toast.js",
    "/js/scripts/pages/coming-soon.js": "/js/scripts/pages/coming-soon.js",
    "/js/scripts/pages/content-sidebar.js": "/js/scripts/pages/content-sidebar.js",
    "/js/scripts/pages/dashboard-analytics.js": "/js/scripts/pages/dashboard-analytics.js",
    "/js/scripts/pages/dashboard-ecommerce.js": "/js/scripts/pages/dashboard-ecommerce.js",
    "/js/scripts/pages/faq-kb.js": "/js/scripts/pages/faq-kb.js",
    "/js/scripts/pages/invoice.js": "/js/scripts/pages/invoice.js",
    "/js/scripts/pages/sk-content-sidebar.js": "/js/scripts/pages/sk-content-sidebar.js",
    "/js/scripts/pages/user-profile.js": "/js/scripts/pages/user-profile.js",
    "/js/scripts/pagination/pagination.js": "/js/scripts/pagination/pagination.js",
    "/js/scripts/pickers/dateTime/pick-a-datetime.js": "/js/scripts/pickers/dateTime/pick-a-datetime.js",
    "/js/scripts/popover/popover.js": "/js/scripts/popover/popover.js",
    "/js/scripts/tooltip/tooltip.js": "/js/scripts/tooltip/tooltip.js",
    "/js/scripts/ui/data-list-view.js": "/js/scripts/ui/data-list-view.js",
    "/vendors/js/calendar/extensions/daygrid.min.js": "/vendors/js/calendar/extensions/daygrid.min.js",
    "/vendors/js/calendar/extensions/interactions.min.js": "/vendors/js/calendar/extensions/interactions.min.js",
    "/vendors/js/calendar/extensions/timegrid.min.js": "/vendors/js/calendar/extensions/timegrid.min.js",
    "/vendors/js/calendar/fullcalendar.min.js": "/vendors/js/calendar/fullcalendar.min.js",
    "/vendors/js/charts/apexcharts.js": "/vendors/js/charts/apexcharts.js",
    "/vendors/js/charts/apexcharts.min.js": "/vendors/js/charts/apexcharts.min.js",
    "/vendors/js/charts/chart.min.js": "/vendors/js/charts/chart.min.js",
    "/vendors/js/charts/echarts/echarts.js": "/vendors/js/charts/echarts/echarts.js",
    "/vendors/js/charts/echarts/echarts.min.js": "/vendors/js/charts/echarts/echarts.min.js",
    "/vendors/js/charts/gmaps.min.js": "/vendors/js/charts/gmaps.min.js",
    "/vendors/js/coming-soon/jquery.countdown.js": "/vendors/js/coming-soon/jquery.countdown.js",
    "/vendors/js/coming-soon/jquery.countdown.min.js": "/vendors/js/coming-soon/jquery.countdown.min.js",
    "/vendors/js/custom-scripts/userregister.js": "/vendors/js/custom-scripts/userregister.js",
    "/vendors/js/editors/quill/highlight.min.js": "/vendors/js/editors/quill/highlight.min.js",
    "/vendors/js/editors/quill/katex.min.js": "/vendors/js/editors/quill/katex.min.js",
    "/vendors/js/editors/quill/quill.js": "/vendors/js/editors/quill/quill.js",
    "/vendors/js/editors/quill/quill.min.js": "/vendors/js/editors/quill/quill.min.js",
    "/vendors/js/editors/quill/themes/base.js": "/vendors/js/editors/quill/themes/base.js",
    "/vendors/js/editors/quill/themes/bubble.js": "/vendors/js/editors/quill/themes/bubble.js",
    "/vendors/js/editors/quill/themes/snow.js": "/vendors/js/editors/quill/themes/snow.js",
    "/vendors/js/editors/quill/ui/color-picker.js": "/vendors/js/editors/quill/ui/color-picker.js",
    "/vendors/js/editors/quill/ui/icon-picker.js": "/vendors/js/editors/quill/ui/icon-picker.js",
    "/vendors/js/editors/quill/ui/icons.js": "/vendors/js/editors/quill/ui/icons.js",
    "/vendors/js/editors/quill/ui/picker.js": "/vendors/js/editors/quill/ui/picker.js",
    "/vendors/js/editors/quill/ui/tooltip.js": "/vendors/js/editors/quill/ui/tooltip.js",
    "/vendors/js/extensions/dataTables.checkboxes.min.js": "/vendors/js/extensions/dataTables.checkboxes.min.js",
    "/vendors/js/extensions/dragula.min.js": "/vendors/js/extensions/dragula.min.js",
    "/vendors/js/extensions/dropzone.min.js": "/vendors/js/extensions/dropzone.min.js",
    "/vendors/js/extensions/i18next.min.js": "/vendors/js/extensions/i18next.min.js",
    "/vendors/js/extensions/i18nextBrowserLanguageDetector.min.js": "/vendors/js/extensions/i18nextBrowserLanguageDetector.min.js",
    "/vendors/js/extensions/i18nextXHRBackend.min.js": "/vendors/js/extensions/i18nextXHRBackend.min.js",
    "/vendors/js/extensions/jquery-i18next.min.js": "/vendors/js/extensions/jquery-i18next.min.js",
    "/vendors/js/extensions/jquery.contextMenu.min.js": "/vendors/js/extensions/jquery.contextMenu.min.js",
    "/vendors/js/extensions/jquery.mousewheel.min.js": "/vendors/js/extensions/jquery.mousewheel.min.js",
    "/vendors/js/extensions/jquery.steps.min.js": "/vendors/js/extensions/jquery.steps.min.js",
    "/vendors/js/extensions/jquery.ui.position.min.js": "/vendors/js/extensions/jquery.ui.position.min.js",
    "/vendors/js/extensions/lang-all.js": "/vendors/js/extensions/lang-all.js",
    "/vendors/js/extensions/locale-all.js": "/vendors/js/extensions/locale-all.js",
    "/vendors/js/extensions/moment.min.js": "/vendors/js/extensions/moment.min.js",
    "/vendors/js/extensions/nouislider.min.js": "/vendors/js/extensions/nouislider.min.js",
    "/vendors/js/extensions/pace.min.js": "/vendors/js/extensions/pace.min.js",
    "/vendors/js/extensions/polyfill.min.js": "/vendors/js/extensions/polyfill.min.js",
    "/vendors/js/extensions/shepherd.min.js": "/vendors/js/extensions/shepherd.min.js",
    "/vendors/js/extensions/sweetalert2.all.min.js": "/vendors/js/extensions/sweetalert2.all.min.js",
    "/vendors/js/extensions/swiper.min.js": "/vendors/js/extensions/swiper.min.js",
    "/vendors/js/extensions/tether.min.js": "/vendors/js/extensions/tether.min.js",
    "/vendors/js/extensions/toastr.min.js": "/vendors/js/extensions/toastr.min.js",
    "/vendors/js/extensions/transition.js": "/vendors/js/extensions/transition.js",
    "/vendors/js/extensions/wNumb.js": "/vendors/js/extensions/wNumb.js",
    "/vendors/js/forms/extended/maxlength/bootstrap-maxlength.js": "/vendors/js/forms/extended/maxlength/bootstrap-maxlength.js",
    "/vendors/js/forms/extended/typeahead/bloodhound.min.js": "/vendors/js/forms/extended/typeahead/bloodhound.min.js",
    "/vendors/js/forms/extended/typeahead/handlebars.js": "/vendors/js/forms/extended/typeahead/handlebars.js",
    "/vendors/js/forms/extended/typeahead/typeahead.bundle.min.js": "/vendors/js/forms/extended/typeahead/typeahead.bundle.min.js",
    "/vendors/js/forms/repeater/jquery.repeater.min.js": "/vendors/js/forms/repeater/jquery.repeater.min.js",
    "/vendors/js/forms/select/select2.full.js": "/vendors/js/forms/select/select2.full.js",
    "/vendors/js/forms/select/select2.full.min.js": "/vendors/js/forms/select/select2.full.min.js",
    "/vendors/js/forms/select/select2.js": "/vendors/js/forms/select/select2.js",
    "/vendors/js/forms/select/select2.min.js": "/vendors/js/forms/select/select2.min.js",
    "/vendors/js/forms/spinner/jquery.bootstrap-touchspin.js": "/vendors/js/forms/spinner/jquery.bootstrap-touchspin.js",
    "/vendors/js/forms/toggle/switchery.js": "/vendors/js/forms/toggle/switchery.js",
    "/vendors/js/forms/toggle/switchery.min.js": "/vendors/js/forms/toggle/switchery.min.js",
    "/vendors/js/forms/validation/jqBootstrapValidation.js": "/vendors/js/forms/validation/jqBootstrapValidation.js",
    "/vendors/js/forms/validation/jquery.validate.min.js": "/vendors/js/forms/validation/jquery.validate.min.js",
    "/vendors/js/media/plyr.js": "/vendors/js/media/plyr.js",
    "/vendors/js/media/plyr.polyfilled.js": "/vendors/js/media/plyr.polyfilled.js",
    "/vendors/js/miscellaneous/countdown.min.js": "/vendors/js/miscellaneous/countdown.min.js",
    "/vendors/js/pagination/jquery.bootpag.min.js": "/vendors/js/pagination/jquery.bootpag.min.js",
    "/vendors/js/pagination/jquery.twbsPagination.min.js": "/vendors/js/pagination/jquery.twbsPagination.min.js",
    "/vendors/js/pickers/pickadate/legacy.js": "/vendors/js/pickers/pickadate/legacy.js",
    "/vendors/js/pickers/pickadate/picker.date.js": "/vendors/js/pickers/pickadate/picker.date.js",
    "/vendors/js/pickers/pickadate/picker.js": "/vendors/js/pickers/pickadate/picker.js",
    "/vendors/js/pickers/pickadate/picker.time.js": "/vendors/js/pickers/pickadate/picker.time.js",
    "/vendors/js/tables/ag-grid/ag-grid-community.min.noStyle.js": "/vendors/js/tables/ag-grid/ag-grid-community.min.noStyle.js",
    "/vendors/js/tables/datatable/buttons.bootstrap.min.js": "/vendors/js/tables/datatable/buttons.bootstrap.min.js",
    "/vendors/js/tables/datatable/buttons.html5.min.js": "/vendors/js/tables/datatable/buttons.html5.min.js",
    "/vendors/js/tables/datatable/buttons.print.min.js": "/vendors/js/tables/datatable/buttons.print.min.js",
    "/vendors/js/tables/datatable/datatables.bootstrap4.min.js": "/vendors/js/tables/datatable/datatables.bootstrap4.min.js",
    "/vendors/js/tables/datatable/datatables.buttons.min.js": "/vendors/js/tables/datatable/datatables.buttons.min.js",
    "/vendors/js/tables/datatable/datatables.checkboxes.min.js": "/vendors/js/tables/datatable/datatables.checkboxes.min.js",
    "/vendors/js/tables/datatable/datatables.min.js": "/vendors/js/tables/datatable/datatables.min.js",
    "/vendors/js/tables/datatable/dataTables.select.min.js": "/vendors/js/tables/datatable/dataTables.select.min.js",
    "/vendors/js/tables/datatable/pdfmake.min.js": "/vendors/js/tables/datatable/pdfmake.min.js",
    "/vendors/js/tables/datatable/vfs_fonts.js": "/vendors/js/tables/datatable/vfs_fonts.js",
    "/vendors/js/ui/affix.js": "/vendors/js/ui/affix.js",
    "/vendors/js/ui/blockUI.min.js": "/vendors/js/ui/blockUI.min.js",
    "/vendors/js/ui/jquery-sliding-menu.js": "/vendors/js/ui/jquery-sliding-menu.js",
    "/vendors/js/ui/jquery.matchHeight-min.js": "/vendors/js/ui/jquery.matchHeight-min.js",
    "/vendors/js/ui/jquery.sticky-kit.min.js": "/vendors/js/ui/jquery.sticky-kit.min.js",
    "/vendors/js/ui/jquery.sticky.js": "/vendors/js/ui/jquery.sticky.js",
    "/vendors/js/ui/popper.min.js": "/vendors/js/ui/popper.min.js",
    "/vendors/js/ui/prism-treeview.js": "/vendors/js/ui/prism-treeview.js",
    "/vendors/js/ui/prism.min.js": "/vendors/js/ui/prism.min.js",
    "/vendors/js/ui/screenfull.min.js": "/vendors/js/ui/screenfull.min.js",
    "/vendors/js/ui/unison.min.js": "/vendors/js/ui/unison.min.js",
    "/vendors/js/vendors.min.js": "/vendors/js/vendors.min.js",
    "/vendors/css/animate/animate.css": "/vendors/css/animate/animate.css",
    "/vendors/css/calendars/extensions/daygrid.min.css": "/vendors/css/calendars/extensions/daygrid.min.css",
    "/vendors/css/calendars/extensions/timegrid.min.css": "/vendors/css/calendars/extensions/timegrid.min.css",
    "/vendors/css/calendars/fullcalendar.min.css": "/vendors/css/calendars/fullcalendar.min.css",
    "/vendors/css/calendars/fullcalendar.print.css": "/vendors/css/calendars/fullcalendar.print.css",
    "/vendors/css/charts/apexcharts.css": "/vendors/css/charts/apexcharts.css",
    "/vendors/css/documentation.css": "/vendors/css/documentation.css",
    "/vendors/css/editors/quill/katex.min.css": "/vendors/css/editors/quill/katex.min.css",
    "/vendors/css/editors/quill/monokai-sublime.min.css": "/vendors/css/editors/quill/monokai-sublime.min.css",
    "/vendors/css/editors/quill/quill.bubble.css": "/vendors/css/editors/quill/quill.bubble.css",
    "/vendors/css/editors/quill/quill.snow.css": "/vendors/css/editors/quill/quill.snow.css",
    "/vendors/css/extensions/dataTables.checkboxes.css": "/vendors/css/extensions/dataTables.checkboxes.css",
    "/vendors/css/extensions/dragula.min.css": "/vendors/css/extensions/dragula.min.css",
    "/vendors/css/extensions/jquery.contextMenu.min.css": "/vendors/css/extensions/jquery.contextMenu.min.css",
    "/vendors/css/extensions/nouislider.min.css": "/vendors/css/extensions/nouislider.min.css",
    "/vendors/css/extensions/pace.css": "/vendors/css/extensions/pace.css",
    "/vendors/css/extensions/plyr.css": "/vendors/css/extensions/plyr.css",
    "/vendors/css/extensions/shepherd-theme-default.css": "/vendors/css/extensions/shepherd-theme-default.css",
    "/vendors/css/extensions/sweetalert2.min.css": "/vendors/css/extensions/sweetalert2.min.css",
    "/vendors/css/extensions/swiper.min.css": "/vendors/css/extensions/swiper.min.css",
    "/vendors/css/extensions/tether-theme-arrows.css": "/vendors/css/extensions/tether-theme-arrows.css",
    "/vendors/css/extensions/tether.min.css": "/vendors/css/extensions/tether.min.css",
    "/vendors/css/extensions/toastr.css": "/vendors/css/extensions/toastr.css",
    "/vendors/css/extensions/unslider.css": "/vendors/css/extensions/unslider.css",
    "/vendors/css/file-uploaders/dropzone.min.css": "/vendors/css/file-uploaders/dropzone.min.css",
    "/vendors/css/forms/select/select2.css": "/vendors/css/forms/select/select2.css",
    "/vendors/css/forms/select/select2.min.css": "/vendors/css/forms/select/select2.min.css",
    "/vendors/css/forms/spinner/jquery.bootstrap-touchspin.css": "/vendors/css/forms/spinner/jquery.bootstrap-touchspin.css",
    "/vendors/css/forms/toggle/switchery.css": "/vendors/css/forms/toggle/switchery.css",
    "/vendors/css/forms/toggle/switchery.min.css": "/vendors/css/forms/toggle/switchery.min.css",
    "/vendors/css/modal/facebook.css": "/vendors/css/modal/facebook.css",
    "/vendors/css/modal/google.css": "/vendors/css/modal/google.css",
    "/vendors/css/modal/twitter.css": "/vendors/css/modal/twitter.css",
    "/vendors/css/perfect-scrollbar/perfect-scrollbar.min.css": "/vendors/css/perfect-scrollbar/perfect-scrollbar.min.css",
    "/vendors/css/pickers/pickadate/classic.css": "/vendors/css/pickers/pickadate/classic.css",
    "/vendors/css/pickers/pickadate/classic.date.css": "/vendors/css/pickers/pickadate/classic.date.css",
    "/vendors/css/pickers/pickadate/classic.time.css": "/vendors/css/pickers/pickadate/classic.time.css",
    "/vendors/css/pickers/pickadate/default.css": "/vendors/css/pickers/pickadate/default.css",
    "/vendors/css/pickers/pickadate/default.time.css": "/vendors/css/pickers/pickadate/default.time.css",
    "/vendors/css/pickers/pickadate/pickadate.css": "/vendors/css/pickers/pickadate/pickadate.css",
    "/vendors/css/tables/ag-grid/ag-grid.css": "/vendors/css/tables/ag-grid/ag-grid.css",
    "/vendors/css/tables/ag-grid/ag-theme-material.css": "/vendors/css/tables/ag-grid/ag-theme-material.css",
    "/vendors/css/tables/datatable/datatables.min.css": "/vendors/css/tables/datatable/datatables.min.css",
    "/vendors/css/tables/datatable/extensions/dataTables.checkboxes.css": "/vendors/css/tables/datatable/extensions/dataTables.checkboxes.css",
    "/vendors/css/tables/datatable/select.dataTables.min.css": "/vendors/css/tables/datatable/select.dataTables.min.css",
    "/vendors/css/ui/prism-treeview.css": "/vendors/css/ui/prism-treeview.css",
    "/vendors/css/ui/prism.min.css": "/vendors/css/ui/prism.min.css",
    "/vendors/css/vendors-rtl.min.css": "/vendors/css/vendors-rtl.min.css",
    "/vendors/css/vendors.min.css": "/vendors/css/vendors.min.css",
    "/vendors/css/weather-icons/climacons.min.css": "/vendors/css/weather-icons/climacons.min.css"
}
